[gd_resource type="Theme" load_steps=2 format=2]

[ext_resource path="res://addons/nframework/assets/fonts/kenney/kenney-pixel-square_16.tres" type="DynamicFont" id=1]

[resource]
default_font = ExtResource( 1 )
