[gd_resource type="AtlasTexture" load_steps=2 format=2]

[ext_resource path="res://addons/nframework/assets/ui/UIpackSheet_transparent.png" type="Texture" id=1]

[resource]
atlas = ExtResource( 1 )
region = Rect2( 16, 396, 0, 0 )
