[gd_scene load_steps=4 format=2]

[ext_resource path="res://addons/nframework/ui/MenuSlider.tscn" type="PackedScene" id=1]
[ext_resource path="res://addons/nframework/ui/VolumeControl.gd" type="Script" id=2]
[ext_resource path="res://assets/temp/button_002.wav" type="AudioStream" id=3]

[node name="VolumeControl" type="MarginContainer"]
anchor_right = 1.0
margin_bottom = 16.0
script = ExtResource( 2 )
__meta__ = {
"_edit_use_anchors_": false
}

[node name="MenuSlider" parent="." instance=ExtResource( 1 )]
anchor_right = 0.0
margin_right = 320.0
MAX_VALUE = 1.0
STEP = 0.05

[node name="AudioStreamPlayer" type="AudioStreamPlayer" parent="."]
stream = ExtResource( 3 )
