[gd_resource type="DynamicFont" load_steps=2 format=2]

[ext_resource path="res://addons/nframework/assets/fonts/m5x7.ttf" type="DynamicFontData" id=1]

[resource]
extra_spacing_top = -2
font_data = ExtResource( 1 )
