[gd_scene load_steps=2 format=2]

[sub_resource type="GDScript" id=1]
script/source = "extends Control

"

[node name="Control" type="Control"]
script = SubResource( 1 )
__meta__ = {
"_edit_use_anchors_": false
}
